{
  "type": "postgres",
  "username": "postgres",
  "password": "postgres",
  "database": "backend-test-chat-users",
  "synchronize": false,
  "logging": false,
  "entities": ["src/**/*.entity.ts"],
  "migrations": ["src/migration/**/*.ts"],
  "subscribers": ["src/subscriber/**/*.ts"],
  "cli": {
    "entitiesDir": "src/**/*.entity.ts",
    "migrationsDir": "src/migration",
    "subscribersDir": "src/subscriber"
  }
}
